Notebook 01: Extract PID and Econ
…
Now to test we can select only the two (initially) columns of interest in the first data extract. Afterwards we will generalise to all data extracts

Code

data_wave_1 <- haven::read_dta(indresp_files[1])

Now to select only those variables which match the variable patterns above

Code

data_wave_1 %>% 
  select(pidp, ends_with("jbstat"))

# A tibble: 50,994 × 2
       pidp a_jbstat                  
      <dbl> <dbl+lbl>                 
 1 68001367 2 [Paid employment(ft/pt)]
 2 68004087 2 [Paid employment(ft/pt)]
 3 68006127 3 [unemployed]            
 4 68006135 7 [full-time student]     
 5 68006807 4 [retired]               
 6 68007487 3 [unemployed]            
 7 68007491 8 [LT sick or disabled]   
 8 68007495 2 [Paid employment(ft/pt)]
 9 68007499 2 [Paid employment(ft/pt)]
10 68008167 6 [Family care or home]   
# ℹ 50,984 more rows
…
Show above in wide format

I think we first want to confirm we can see the econ activity in wide format, with the pidp on the row and each column the econ act status in a different wave

Code

econ_act_groupings_years %>% select(pidp, wave, level_2_meso) %>% pivot_wider(names_from = 'wave', values_from = 'level_2_meso')

# A tibble: 88,602 × 13
       pidp a        b     c     d     e     f     g     h     i     j     k    
      <dbl> <chr>    <chr> <chr> <chr> <chr> <chr> <chr> <chr> <chr> <chr> <chr>
 1 68001367 Employed <NA>  <NA>  <NA>  <NA>  <NA>  <NA>  <NA>  <NA>  <NA>  <NA> 
 2 68004087 Employed Empl… Empl… Empl… Empl… Empl… Empl… Empl… Empl… Inac… <NA> 
 3 68006127 Unemplo… Unem… Inac… Inac… Inac… Inac… Inac… Inac… Inac… Unem… Unem…
 4 68006135 Inactive <NA>  Empl… Empl… Empl… <NA>  Empl… <NA>  <NA>  <NA>  <NA> 
 5 68006807 Inactive Inac… Inac… Inac… Inac… Inac… Inac… Inac… Inac… <NA>  <NA> 
 6 68007487 Unemplo… Unem… Empl… Empl… <NA>  <NA>  <NA>  <NA>  <NA>  <NA>  <NA> 
 7 68007491 Inactive <NA>  <NA>  Empl… <NA>  <NA>  <NA>  <NA>  <NA>  <NA>  <NA> 
 8 68007495 Employed <NA>  <NA>  <NA>  <NA>  <NA>  <NA>  <NA>  <NA>  <NA>  <NA> 
 9 68007499 Employed <NA>  <NA>  <NA>  <NA>  <NA>  <NA>  <NA>  <NA>  <NA>  <NA> 
10 68008167 Inactive Inac… <NA>  <NA>  <NA>  <NA>  <NA>  <NA>  <NA>  <NA>  <NA> 
# ℹ 88,592 more rows
# ℹ 1 more variable: l <chr>
…
econ_group_col: column of economic activity groupings

pid_col: name of column with pid

t0: letter or number indicating initial year (to calculate transitions from)

time_col: column indicating time variable (either a letter or a number)

Code

econ_act_groupings_years %>% 
  select(pidp, wave, level_2_meso) %>% 
  pivot_wider(names_from = 'wave', values_from = 'level_2_meso')

# A tibble: 88,602 × 13
       pidp a        b     c     d     e     f     g     h     i     j     k    
      <dbl> <chr>    <chr> <chr> <chr> <chr> <chr> <chr> <chr> <chr> <chr> <chr>
 1 68001367 Employed <NA>  <NA>  <NA>  <NA>  <NA>  <NA>  <NA>  <NA>  <NA>  <NA> 
 2 68004087 Employed Empl… Empl… Empl… Empl… Empl… Empl… Empl… Empl… Inac… <NA> 
 3 68006127 Unemplo… Unem… Inac… Inac… Inac… Inac… Inac… Inac… Inac… Unem… Unem…
 4 68006135 Inactive <NA>  Empl… Empl… Empl… <NA>  Empl… <NA>  <NA>  <NA>  <NA> 
 5 68006807 Inactive Inac… Inac… Inac… Inac… Inac… Inac… Inac… Inac… <NA>  <NA> 
 6 68007487 Unemplo… Unem… Empl… Empl… <NA>  <NA>  <NA>  <NA>  <NA>  <NA>  <NA> 
 7 68007491 Inactive <NA>  <NA>  Empl… <NA>  <NA>  <NA>  <NA>  <NA>  <NA>  <NA> 
 8 68007495 Employed <NA>  <NA>  <NA>  <NA>  <NA>  <NA>  <NA>  <NA>  <NA>  <NA> 
 9 68007499 Employed <NA>  <NA>  <NA>  <NA>  <NA>  <NA>  <NA>  <NA>  <NA>  <NA> 
10 68008167 Inactive Inac… <NA>  <NA>  <NA>  <NA>  <NA>  <NA>  <NA>  <NA>  <NA> 
# ℹ 88,592 more rows
# ℹ 1 more variable: l <chr>
…
