Notebook 05: Show proportion by activity status by age and wave
…
print(paste(
  "Overall process took",
  difftime(overall_end_time, overall_start_time, units = "mins"),
  "minutes"
))

[1] "Overall process took 0.105668218930562 minutes"

Code

rm(long_slimmed_datalist)
long_slimmed_data

# A tibble: 1,516,371 × 4
       pidp wave  variable value 
      <dbl> <chr> <chr>    <chr> 
 1 68001367 a     sex      male  
 2 68004087 a     sex      male  
 3 68006127 a     sex      female
 4 68006135 a     sex      female
 5 68006807 a     sex      female
 6 68007487 a     sex      female
 7 68007491 a     sex      male  
 8 68007495 a     sex      male  
 9 68007499 a     sex      male  
10 68008167 a     sex      female
# ℹ 1,516,361 more rows
…
