Notebook 07: Visualise transitions between economic activity states
…
These are all numeric, so I guess the ‘node values’.

Code

df <- mtcars %>% 
  make_long(cyl, vs, am, gear, carb)
df

?(caption)

# A tibble: 160 × 4
   x      node next_x next_node
   <fct> <dbl> <fct>      <dbl>
 1 cyl       6 vs             0
 2 vs        0 am             1
 3 am        1 gear           4
 4 gear      4 carb           4
 5 carb      4 <NA>          NA
 6 cyl       6 vs             0
 7 vs        0 am             1
 8 am        1 gear           4
 9 gear      4 carb           4
10 carb      4 <NA>          NA
# ℹ 150 more rows
…
print(paste(
  "Overall process took",
  difftime(overall_end_time, overall_start_time, units = "mins"),
  "minutes"
))

[1] "Overall process took 0.0973229169845581 minutes"

Code

rm(long_slimmed_datalist)
long_slimmed_data

# A tibble: 1,516,371 × 4
       pidp wave  variable value 
      <dbl> <chr> <chr>    <chr> 
 1 68001367 a     sex      male  
 2 68004087 a     sex      male  
 3 68006127 a     sex      female
 4 68006135 a     sex      female
 5 68006807 a     sex      female
 6 68007487 a     sex      female
 7 68007491 a     sex      male  
 8 68007495 a     sex      male  
 9 68007499 a     sex      male  
10 68008167 a     sex      female
# ℹ 1,516,361 more rows
…
transition_probabilities

# A tibble: 99 × 6
# Groups:   wavenum, last_status [33]
   wavenum last_status status         n     N   prop
     <dbl> <chr>       <chr>      <int> <int>  <dbl>
 1       2 Employed    Employed   19313 20968 0.921 
 2       2 Employed    Inactive    1082 20968 0.0516
 3       2 Employed    Unemployed   573 20968 0.0273
 4       2 Inactive    Employed    1053 15106 0.0697
 5       2 Inactive    Inactive   13446 15106 0.890 
 6       2 Inactive    Unemployed   607 15106 0.0402
 7       2 Unemployed  Employed     680  2281 0.298 
 8       2 Unemployed  Inactive     603  2281 0.264 
 9       2 Unemployed  Unemployed   998  2281 0.438 
10       3 Employed    Employed   22536 24303 0.927 
# ℹ 89 more rows
…
