Notebook 08: Multinomial logistic regression - first notebook
…
print(paste(
  "Overall process took",
  difftime(overall_end_time, overall_start_time, units = "mins"),
  "minutes"
))

[1] "Overall process took 0.099256964524587 minutes"

Code

rm(long_slimmed_datalist)
long_slimmed_data

# A tibble: 1,516,371 × 4
       pidp wave  variable value 
      <dbl> <chr> <chr>    <chr> 
 1 68001367 a     sex      male  
 2 68004087 a     sex      male  
 3 68006127 a     sex      female
 4 68006135 a     sex      female
 5 68006807 a     sex      female
 6 68007487 a     sex      female
 7 68007491 a     sex      male  
 8 68007495 a     sex      male  
 9 68007499 a     sex      male  
10 68008167 a     sex      female
# ℹ 1,516,361 more rows
…
Code

econ_act_statuses_threelevels <- 
  long_slimmed_data %>% 
    filter(variable == 'jbstat') %>% 
    left_join(
      econ_act_groups %>% select(original, recoded = level_2_meso),
      by = c('value' = 'original')
    ) %>% 
    select(pidp, wave, econ_act_status = recoded)

econ_act_statuses_threelevels

# A tibble: 505,457 × 3
       pidp wave  econ_act_status
      <dbl> <chr> <chr>          
 1 68001367 a     Employed       
 2 68004087 a     Employed       
 3 68006127 a     Unemployed     
 4 68006135 a     Inactive       
 5 68006807 a     Inactive       
 6 68007487 a     Unemployed     
 7 68007491 a     Inactive       
 8 68007495 a     Employed       
 9 68007499 a     Employed       
10 68008167 a     Inactive       
# ℹ 505,447 more rows
…
econ_act_current_gvn_last

# A tibble: 355,647 × 4
      pidp wavenumber this_status last_status
     <dbl>      <dbl> <chr>       <chr>      
 1  280165          2 Employed    Employed   
 2  956765          2 Employed    Employed   
 3  987365          2 Inactive    Employed   
 4 1558565          2 Inactive    Inactive   
 5 1833965          2 Employed    Employed   
 6 2670365          2 Inactive    Employed   
 7 2853965          2 Employed    Employed   
 8 3915445          2 Inactive    Employed   
 9 4091565          2 Employed    Unemployed 
10 4192205          2 Employed    Employed   
# ℹ 355,637 more rows
…
