11_estimating_pafs_on_mh_and_ph
…
overall_end_time = Sys.time()

print(paste(
  "Overall process took",
  difftime(overall_end_time, overall_start_time, units = "mins"),
  "minutes"
))

[1] "Overall process took 0.10863071680069 minutes"

rm(long_slimmed_datalist)
long_slimmed_data

# A tibble: 2,021,828 × 4
       pidp wave  variable value 
      <dbl> <chr> <chr>    <chr> 
 1 68001367 a     sex      male  
 2 68004087 a     sex      male  
 3 68006127 a     sex      female
 4 68006135 a     sex      female
 5 68006807 a     sex      female
 6 68007487 a     sex      female
 7 68007491 a     sex      male  
 8 68007495 a     sex      male  
 9 68007499 a     sex      male  
10 68008167 a     sex      female
# ℹ 2,021,818 more rows
…
econ_act_groups <- readxl::read_excel(path = here("data/economic_activities_categories.xlsx"), sheet = 'categories') %>% 
  janitor::clean_names()

econ_act_statuses_sevenlevels <- 
  long_slimmed_data %>% 
    filter(variable == 'jbstat') %>% 
    left_join(
      econ_act_groups %>% select(original, recoded = level_3),
      by = c('value' = 'original')
    ) %>% 
    select(pidp, wave, econ_act_status = recoded)

econ_act_statuses_sevenlevels

# A tibble: 505,457 × 3
       pidp wave  econ_act_status        
      <dbl> <chr> <chr>                  
 1 68001367 a     Employed               
 2 68004087 a     Employed               
 3 68006127 a     Unemployed             
 4 68006135 a     Inactive student       
 5 68006807 a     Inactive retired       
 6 68007487 a     Unemployed             
 7 68007491 a     Inactive long term sick
 8 68007495 a     Employed               
 9 68007499 a     Employed               
10 68008167 a     Inactive care          
# ℹ 505,447 more rows
…
Joining with `by = join_by(pidp, wavenumber)`

rm(jj)
    
econ_act_current_gvn_last

# A tibble: 355,647 × 4
      pidp wavenumber this_status      last_status     
     <dbl>      <dbl> <chr>            <chr>           
 1  280165          2 Employed         Employed        
 2  956765          2 Employed         Employed        
 3  987365          2 Inactive student Employed        
 4 1558565          2 Inactive student Inactive student
 5 1833965          2 Employed         Employed        
 6 2670365          2 Inactive student Employed        
 7 2853965          2 Employed         Employed        
 8 3915445          2 Inactive student Employed        
 9 4091565          2 Employed         Unemployed      
10 4192205          2 Employed         Employed        
# ℹ 355,637 more rows
…
We should remove inapplicable and missing (DONE!), but in the first instance perhaps treat the other qualifications as categorical, before looking at ordinal models and recategorisations.

Now what about age left full time education?

econ_act_current_gvn_last_with_sex_age_and_highest_qual %>% 
  group_by(feend_dv) %>% 
  count() %>% 
  ungroup() %>% 
  mutate(
    share = n / sum(n),
    cumulative_share = cumsum(share)
  )

# A tibble: 48 × 4
   feend_dv     n    share cumulative_share
      <dbl> <int>    <dbl>            <dbl>
 1       15    76 0.000564         0.000564
 2       16  1037 0.00770          0.00826 
 3       17 12187 0.0905           0.0987  
 4       18 21019 0.156            0.255   
 5       19 11840 0.0879           0.343   
 6       20  9232 0.0685           0.411   
 7       21 23439 0.174            0.585   
 8       22 18527 0.138            0.723   
 9       23  9690 0.0719           0.795   
10       24  6154 0.0457           0.840   
# ℹ 38 more rows
…
Let’s now look at things by last status as well:

all_predictions_predictors %>% 
  group_by(last_status, arm, status) %>% 
  summarise(
    total_estimated = sum(predicted_probability)
  ) %>% 
  ungroup() %>% 
  pivot_wider(names_from = arm, values_from = total_estimated) %>% 
  mutate(across(control:level3, function(x) (x - control) / control))

`summarise()` has grouped output by 'last_status', 'arm'. You can override
using the `.groups` argument.

# A tibble: 49 × 6
   last_status   status                  control    level1    level2   level3
   <chr>         <chr>                     <dbl>     <dbl>     <dbl>    <dbl>
 1 Employed      Employed                      0  0.000199  0.00180   0.00515
 2 Employed      Inactive care                 0 -0.00670  -0.0515   -0.170  
 3 Employed      Inactive long term sick       0 -0.0107   -0.0777   -0.331  
 4 Employed      Inactive other                0 -0.00327  -0.000872 -0.0464 
 5 Employed      Inactive retired              0 -0.00417  -0.00556   0.0208 
 6 Employed      Inactive student              0 -0.00145   0.0389    0.0484 
 7 Employed      Unemployed                    0 -0.00487  -0.0818   -0.191  
 8 Inactive care Employed                      0  0.00704   0.0601    0.241  
 9 Inactive care Inactive care                 0 -0.00124  -0.0107   -0.0509 
10 Inactive care Inactive long term sick       0 -0.00721  -0.0352   -0.279  
# ℹ 39 more rows
…
