23 Average household income by highest qualification
…
print(paste(
  "Overall process took",
  difftime(overall_end_time, overall_start_time, units = "mins"),
  "minutes"
))

[1] "Overall process took 0.100697819391886 minutes"

Code

rm(long_slimmed_datalist)
long_slimmed_data

# A tibble: 1,516,371 × 4
       pidp wave  variable value 
      <dbl> <chr> <chr>    <chr> 
 1 68001367 a     sex      male  
 2 68004087 a     sex      male  
 3 68006127 a     sex      female
 4 68006135 a     sex      female
 5 68006807 a     sex      female
 6 68007487 a     sex      female
 7 68007491 a     sex      male  
 8 68007495 a     sex      male  
 9 68007499 a     sex      male  
10 68008167 a     sex      female
# ℹ 1,516,361 more rows
…
Code

hh_long_slimmed_datalist <- bind_rows(hh_long_slimmed_datalist)

hh_long_slimmed_datalist

# A tibble: 6,067,690 × 4
   wave      hidp variable value                                         
   <chr>    <dbl> <chr>    <dbl+lbl>                                     
 1 a     68001363 numadult 1 [1 male, aged 65+, no children]             
 2 a     68004083 numadult 1 [1 male, aged 65+, no children]             
 3 a     68006123 numadult 3 [1 adult under pensionable age, no children]
 4 a     68006803 numadult 1 [1 male, aged 65+, no children]             
 5 a     68007483 numadult 4 [1 adult, 1 child]                          
 6 a     68008163 numadult 2 [1 female, age 60+, no children]            
 7 a     68008843 numadult 1 [1 male, aged 65+, no children]             
 8 a     68009523 numadult 1 [1 male, aged 65+, no children]             
 9 a     68010203 numadult 1 [1 male, aged 65+, no children]             
10 a     68010883 numadult 2 [1 female, age 60+, no children]            
# ℹ 6,067,680 more rows
…
